/Users/henrique.lima/Desktop/sitename_users_api/src/main/java/com/notfound/sitename_users_api/util/ProjectUtils.java
/Users/henrique.lima/Desktop/sitename_users_api/src/main/java/com/notfound/sitename_users_api/exceptions/security/AccessDeniedHandlerAdapter.java
/Users/henrique.lima/Desktop/sitename_users_api/src/main/java/com/notfound/sitename_users_api/exceptions/security/EntryPointAdapter.java
/Users/henrique.lima/Desktop/sitename_users_api/src/main/java/com/notfound/sitename_users_api/services/interfaces/UserService.java
/Users/henrique.lima/Desktop/sitename_users_api/src/main/java/com/notfound/sitename_users_api/exceptions/custom_exceptions/UserNotFoundException.java
/Users/henrique.lima/Desktop/sitename_users_api/src/main/java/com/notfound/sitename_users_api/models/Order.java
/Users/henrique.lima/Desktop/sitename_users_api/src/main/java/com/notfound/sitename_users_api/models/Product.java
/Users/henrique.lima/Desktop/sitename_users_api/src/main/java/com/notfound/sitename_users_api/util/UsernamePasswordAuthenticationTokenAdapter.java
/Users/henrique.lima/Desktop/sitename_users_api/src/main/java/com/notfound/sitename_users_api/dto/UserDTO.java
/Users/henrique.lima/Desktop/sitename_users_api/src/main/java/com/notfound/sitename_users_api/exceptions/ErrorMessage.java
/Users/henrique.lima/Desktop/sitename_users_api/src/main/java/com/notfound/sitename_users_api/security/SecurityConfig.java
/Users/henrique.lima/Desktop/sitename_users_api/src/main/java/com/notfound/sitename_users_api/controllers/UserController.java
/Users/henrique.lima/Desktop/sitename_users_api/src/main/java/com/notfound/sitename_users_api/services/impl/UserServiceImpl.java
/Users/henrique.lima/Desktop/sitename_users_api/src/main/java/com/notfound/sitename_users_api/SitenameUsersApi.java
/Users/henrique.lima/Desktop/sitename_users_api/src/main/java/com/notfound/sitename_users_api/dto/TokenDTO.java
/Users/henrique.lima/Desktop/sitename_users_api/src/main/java/com/notfound/sitename_users_api/exceptions/ControllerExceptionHandler.java
/Users/henrique.lima/Desktop/sitename_users_api/src/main/java/com/notfound/sitename_users_api/repositories/UserRepository.java
/Users/henrique.lima/Desktop/sitename_users_api/src/main/java/com/notfound/sitename_users_api/security/CustomerAuthenticationFilter.java
/Users/henrique.lima/Desktop/sitename_users_api/src/main/java/com/notfound/sitename_users_api/exceptions/custom_exceptions/InternalServerErrorException.java
/Users/henrique.lima/Desktop/sitename_users_api/src/main/java/com/notfound/sitename_users_api/exceptions/custom_exceptions/BadRequestException.java
/Users/henrique.lima/Desktop/sitename_users_api/src/main/java/com/notfound/sitename_users_api/exceptions/custom_exceptions/ResourceNotFoundException.java
/Users/henrique.lima/Desktop/sitename_users_api/src/main/java/com/notfound/sitename_users_api/exceptions/custom_exceptions/UserCPFAlreadyExistsException.java
/Users/henrique.lima/Desktop/sitename_users_api/src/main/java/com/notfound/sitename_users_api/util/Config.java
/Users/henrique.lima/Desktop/sitename_users_api/src/main/java/com/notfound/sitename_users_api/exceptions/custom_exceptions/UserPhoneAlreadyExistsException.java
/Users/henrique.lima/Desktop/sitename_users_api/src/main/java/com/notfound/sitename_users_api/exceptions/custom_exceptions/UserEmailAlreadyExistsException.java
/Users/henrique.lima/Desktop/sitename_users_api/src/main/java/com/notfound/sitename_users_api/models/User.java
